﻿Poste chargé.e de missions « recherche-action ouverte »,Prêt (pour import sur Wordpress),Publié ,22_recherche-action_site-web.png (https://dl.airtable.com/.attachments/b11b1aeee15ba3439ff96365082dad7e/04c90662/22_recherche-action_site-web.png),https://inno3.fr/sites/default/files/articles/22_recherche-action_site-web.png,2022-05-30,30/05/2022 14:15,Célya,"Afin d’accompagner nos missions et activités de recherche, nous recherchons une personne prête à s’impliquer dans le développement des activités de R&D d’inno³, et de prendre part aux réflexions au coeur de nos problématiques de recherche.","'- Date d’embauche : Dès à présent
- Contrat : CDI à temps plein
- Expérience : De 0 à 3 ans
- Niveau d’études : Master ou équivalent en sciences humaines et sociales orientées transformations numériques (digital science, humanités numériques, STS, design)
- Thèmes : #recherche-action #CIR #openscience #opensource #opendata
- Rémunération : 30k€ à 38k€ annuel brut selon profil
 
Inno³ est un cabinet de conseil en stratégie ouverte spécialiste de l’Open Source créé en 2011. Nous nous impliquons auprès de grands groupes et d’administrations, d’instituts de recherche et fondations internationales, de jeunes pousses, de collectivités locales et de collectifs divers afin de les accompagner dans la bonne prise en compte de l’Open Source (et plus largement des modèles ouverts).
Nous structurons depuis 2019 nos activités de recherche et développement. Ces dernières visent à apporter une compréhension, proposer des grilles d’analyse et développer des outils pour différentes institutions publiques et privées pour le développement de modèles ouverts soutenables. Nous contribuons d’une part au design de solutions techniques, organisationnelles, juridiques afin d’aider à la soutenabilité de communautés de l’open source, de l’open data, de la science ouverte et des communs numériques. D’autre part, nous accompagnons une conduite de changement et une gestion de la transition vers des modèles ouverts dans divers contextes : administrations, entreprises, collectivités, organismes de recherche publics et privés.

Pour cela, notre démarche s’appuie sur 4 pilliers :
- la recherche-action pour être proche du terrain et des usages de différents acteurs, qui permet d’ancrer nos missions dans des actions concrètes.
- les méthodes mixtes (qualitative/quantitative) et les méthodologies de co-design/UX research qui facilitent le dialogue entre différentes parties prenantes afin de trouver des solutions collectives ou des gouvernances communes.
- la science ouverte qui se traduit par l’emploi d’outils open source et la mise en libre accès aux données et aux résultats produits.
- une mise en dialogue et une réflexivité par l’organisation et la participation à des évènements sur les thématiques de recherche abordées avec les acteurs concernés.
 
Afin d’accompagner cette activité ainsi que les opportunités qui en découle, nous recherchons une personne prête à :
1. s’impliquer dans le développement des activités de recherche d’inno³ et les pistes innovantes de méthodologies et de financement explorées
2. prendre part aux réflexions au coeur de nos problématiques de recherche (analyse et accompagnement de modèles ouverts par le biais du design de solutions juridiques, technique et organisationnelles).


Prérequis
- Capacité d’analyse, de synthèse et de rédaction
- Connaissances des enjeux de transformations d’organisation avec le numérique
- Capacité communicationnelle pour valoriser les projets de recherche ou aider à répondre à des appels à projets
- Compréhension et maîtrise de l’anglais indispensable
- Autonomie et esprit d’initiative
- Aptitude à travailler en équipe en interne notamment avec la responsable des projets de R&D d’inno³ et en externe
- Affinités avec la gestion de projets (suivi de tâches, gestion des délais et des rendus, rédaction de rapport et CR etc.)
- Capacité à mener des tâches de production de contenu et d’édition en anglais et en français (articles scientifiques, rapport, etc.) sur le temps long (itérations nombreuses)

Sujets d'intérêt
- Enjeux d’ouverture (open data, open science, open source) et l’utilisation de logiciels open source
- Analyse quantitative et méthodes numériques (analyse statistiques, analyse de réseau, visualisation de données)
- Ingénierie des connaissances (organisation, structuration, suivi et valorisation des ressources et activités scientifiques ) à l’aide d’outils de gestion bibliographique (Zotero), d’entrepôts de données/d’articles, de bases de données “low code” (baserow, airtable)
- Développement de méthodes de recherche et de financement innovants
- Approches co-design et UX research

Missions
À ce titre, il.elle sera directement impliqué.e sur les sujets suivants :
- aide à la structuration, au suivi et à la valorisation de la R&D au sein d’inno³ par le biais de :
    - suivi des tâches de recherche, rédaction de rapports d’activités et de dossiers techniques pour le CIR, réponses à des appels à financements, etc.)
    - aide à l’organisation des ressources scientifiques et à leur valorisation (recensement, ouverture et communication)
- participation au volet “recherche” des missions réalisées au sein d’inno³ avec une montée en compétence possible sur les aspects “consulting”
    - design des méthodolologies reposant sur les 4 pilliers (recherche-action, méthodes mixtes/numériques, co-design/UX research, réflexivité)
    - analyse quantitative des données en relation avec l’analyse qualitative effectuée par l’équipe
    - rédaction et publication d’articles scientifiques et de rapports

Autres informations
- Lieu : Paris (10ᵉ arrondissement). Nous avons ouvert nos bureaux avec plusieurs entreprises et associations activement impliquées dans le milieu du numérique ouvert, ce qui constitue une opportunité intéressante d’évoluer dans un écosystème dynamique et innovant (un fonctionnement à distance/en télétravail est envisageable dans le cadre d'une organisation collective).
- Mode de fonctionnement : Les méthodes de travail au sein de l’entreprise sont à l’image des valeurs que nous promouvons, construites autour de l’ouverture, la transparence et la collaboration et privilégiant un mode de fonctionnement agile et souple.
- Notre charte définie nos principales valeurs et modalités d’organisation interne.
- Pour soumettre votre CV et Lettre de motivation : contactez nous à hello@inno3.fr
",,"Recherche-action,Réalisation d'étude (qualit/quanti/mixte)",,,https://inno3.fr/actualite/chargee-de-missions-recherche-action-ouverte-pour-les-activites-de-rdinnovation-dinno3,FR
Poste de designeuse•eur - Rendre accessible la complexité ,Prêt (pour import sur Wordpress),Publié ,Communication - Test visuel - Team.jpg (https://dl.airtable.com/.attachments/139e748dc44f380c4be54c6c4c08951e/e32a72f0/Communication-Testvisuel-Team.jpg),https://inno3.fr/sites/default/files/articles/Communication%20-%20Test%20visuel%20-%20Team.jpg,2022-03-21,21/03/2022  14:35 ,Romain,Nous recherchons un.e designeur.se souhaitant rejoindre une équipe passionnée et multidisciplinaire pour y apporter son regard et ses compétences.,"Description du poste

Si vous êtes :
- Convaincu.e que le numérique libre et ouvert est une véritable opportunité pour une innovation collaborative durable, efficiente et responsable ?
- Entraîné.e à traduire des sujets complexes en ressources adaptées, compréhensibles et activables pour en favoriser l'appropriation et la dissémination auprès de publics variés ?
- Familier avec les communautés promouvant la culture du libre et l'utilisation d'outils Open Source font partie de vos préoccupations ?

Nous recherchons un.e designeur.se souhaitant rejoindre une équipe passionnée et multidisciplinaire pour y apporter son regard et ses compétences.

Après une première montée en compétences et un renforcement de l'équipe ces derniers mois, notamment avec l'accompagnement de Romain (qui s'en va dans quelques mois développer son propre projet de recherche), nous souhaitons pérenniser le poste de Designer qui nous apporte une expertise complémentaire et transversale. Intégré au sein d'une équipe pluridisciplinaire, il pourra s'appuyer et articuler son action avec l'effort mené en matière de méthodes numériques ou encore d'intégration des sciences cognitives.
Cette personne sera associée à la réalisation de missions de conseil (notamment dans des approches systémtiques) et de projets de recherche-action du cabinet comme le développement de l'outil Hermine ou le projet API ToS, l’intégration d’approche design dans des méthodes mixtes (quali-quanti). Elle aidera également à à une meilleure prise en compte des processus de collaboration et documentation à l'aide du design au sein de l'équipe : animation d'ateliers, accompagnement méthodologique, (co)conception de ressources, diffusion des compétences et connaissances.

Présentation d'inno³
inno³ est un cabinet de conseil en innovation et science ouverte, indépendant et spécialiste des modèles ouverts (Open Data, OPen Source et Open Source Hardware) créé en 2011. Actuellement acteur de référence dans son domaine, le cabinet s’appuie sur l’expertise tirée de l’implication de ses fondateurs au sein de nombreux projets ouverts, autant communautaires qu’industriels, depuis les années 2000 et de nombreuses missions menées en France et à l’international.
Aujourd’hui, nous nous impliquons auprès de grands groupes et d'administrations, d’instituts de recherche et fondations internationales, de jeunes pousses, de collectivités locales et de collectifs divers pour construire à leurs côtés des formes novatrices de collaboration et d’ouverture. Nous définissons ensemble des stratégies ambitieuses pour en tirer parti ainsi que des politiques pragmatiques qui permettent de les mettre en œuvre.
Cette activité couvre - en collaboration avec de nombreux autres expert.e.s en France et à l’international - les enjeux de gestion de la propriété intellectuelle, de transformation d’organisation, de structuration et interaction avec des communautés (entreprises et individus). Nos compétences de niche sont mises à profit dans des démarches d'innovation et de recherche-action (Open Innovation et Science Ouverte) et appliquées autant en matière d'Open Source, que d'Open Data, d'Open Hardware ou encore de communs numériques.
Nous sommes une équipe à taille humaine composée de practicien.ne.s et chercheur.se.s spécialisées en méthodes numériques et sciences humaines et sociales et expert.e.s du libre.

Fiche de poste
Prérequis (compétences générales)
- Une expérience significative dans le domaine du design de services numérique et d'organisations avec idéalement une appétence ou un background en recherche (Master de type Sciences Cognitives, droit ou sociologie par exemple)
- Une bonne appréhension du numérique ouvert, de la culture du libre allant jusqu'à un engagement militant sur ces thématiques. De même, une connaissances en propriété intellectuelle et aux formes de legal design — secteur dans lequel le cabinet intervient souvent — est un plus.
- Une appétence pour des outils permettant de travailler hors GAFAM et outils propriétaires. Le travail de conception est actuellement mené dans un environnement libre (Penpot, Excalidraw, The Gimp, LibreOffice, etc.)
- Des connaissances techniques associées au développement logiciel et/ou une expérience en design graphique ou visualisation de données sera un atout
- Une maîtrise de l’anglais

Types de missions confiées (savoir-faire)
- Participer à la production de livrables nécessaires à la conduite des missions, à la réponse aux appels à projets et/ou missions
- (Co)Concevoir et (co)animer des méthodologies adaptée au cadre des missions du cabinet et de travaux de recherche-action
- Capacité à interagir avec des développeurs et comprendre les briques technologiques
- Auditer et contribuer à perfectionner les méthodes et ressources internes et externes dans une approche design (exemple mettre à jour le process de design system mis en oeuvre depuis 2022 ainsi que de la base de connaissances internes)
- Être en capacité d'accompagner une montée en compétences partagées en matière de design
- Produire des livrables divers susceptibles de favoriser en interne ou en externe une meilleure appropriation et dissémination des travaux menés au sein du cabinet
- Compréhension des sujets numériques (culture de la donnée, enjeux géopolitique, etc.)
- Recherches internes sur les projets et l'amélioration des pratiques du cabinet
- Contribution à un travail de curation, veille et partage des connaissances (animation de mini-formation, rédaction d'articles, sensibilisation à des pratiques vertueuses)
- Suivi et gestion de projet (chacun dispose d'une certaine autonomie impliquant de la proactivité et un esprit d'initiative)

Outils employés
- Maitrise d'outils de collaboration (Penpot, Excalidraw, NocoDB, NextCloud, HedgeDoc) et la suite logicielle LibreOffice
- À l'aise avec les wikis et forges logicielles (GitLab, GitHub)
- Une sensibilité aux pratiques écologique et accessibles vertueuse dans sa conception (interopérabilité, éco-conception, RGAA)
- Notions de développement web et manipulation de CMS comme WordPress
- Conception et animation d'ateliers, conduite d'entretien, études anthropologique, test d'usages
- Design interactif d'information et de données (schéma, livrables, datavisualisation)

Savoir-être
- Pédagogue et didacticien.ne
- Dynamisme, curiosité et créativité
- Autonomie et esprit d’initiative
- Aptitude à travailler en équipe en interne et en externe
- Rigoureux.se dans les missions et le travail en équipe
- Aptitude à se former et à former le reste de l'équipe
- Capacité de communication et documentation

Cadre de travail et conditions
Cadre de travail :
- Modalités de fonctionnement : Les méthodes de travail au sein de l’entreprise sont à l’image des valeurs que nous promouvons, construites autour de l’ouverture, la transparence et la collaboration et privilégiant un mode de fonctionnement agile et souple. Notre charte définie nos principales valeurs et modalités d’organisation interne.
- Lieu de travail : Paris (10ᵉ arrondissement). Nous avons ouvert nos bureaux avec plusieurs entreprises et associations activement impliquées dans le milieu du numérique ouvert, ce qui constitue une opportunité intéressante d’évoluer dans un écosystème dynamique et innovant.
- Télétravail : Des journées de télétravail sont aménagées avec flexibilité et transparence

Type de contrat
- Date d’embauche : à partir de mai 2022
- Contrat : CDD ou CDI à temps complet ou partiel.
- Rémunération : à partir de 2 200€ net/mois. Négociable selon profil et expérience.
- Expérience : De 2 à 5 ans
- Niveau d’études : Master ou équivalent",,"Communs,Design,Modèle collaboratif,Science ouverte,Innovation Ouverte,Legal design",,,https://inno3.fr/opportunites/poste-de-designeuseeur-rendre-accessible-la-complexite,FR
Consultant.e stratégie communs numériques - Accompagner une innovation ouverte durable ,Prêt (pour import sur Wordpress),Publié ,consultantcommuns.png (https://dl.airtable.com/.attachments/78c9c57cf495b301047128792d76bc99/d168ffee/consultantcommuns.png),https://inno3.fr/sites/default/files/articles/consultantcommuns.png,2022-01-07,07/01/2022  18:19 ,Benjamin,"Nous recherchons un.e consultant.e stratégie communs numériques souhaitant rejoindre une équipe passionnée et multidisciplinaire pour y apporter son regard, son énergie et ses compétences.","Vous êtes convaincu.e que le numérique est une véritable opportunité pour une innovation collaborative durable, locale, efficiente et responsable ? Qu’il ouvre des perspectives nouvelles de collaboration au sein de communautés hétérogènes réunissant des individus et organisations, des acteurs publics et privés, et bien plus encore ? Qu’une telle transformation doit être accompagnée dans des objectifs d’efficacité et de pérennité des projets ainsi co-construits.
Créé en 2011, Inno³ est un cabinet de conseil en innovation ouverte, indépendant et spécialiste de l’Open Data et de l’Open Source. Nous accompagnons depuis plusieurs années un certain nombre de démarches, autant communautaires qu’industrielles, réunies autour de la notion de “communs” ou encore de communs numériques.
Dans ce cadre, nous recherchons un.e consultant.e souhaitant rejoindre une équipe passionnée et multidisciplinaire pour y apporter son regard, son énergie et ses compétences. En s’appuyant sur les expertises et compétences transverses de l’équipe (design, data science, méthodes numériques, etc.), vous interviendrez au sein de notre équipe conseil afin d’accompagner les écosystèmes et/ou organisations impulsant une démarche de communs.

Pré-requis
- Expérience significative dans le domaine du consulting
- Bonne appréhension des enjeux du numérique et de la propriété intellectuelle. Une connaissance du secteur de l’Open Source, Open Data et/ou Communs est un atout.
- Maîtrise de l’anglais

Savoir-faire
- Réalisation d’audits, entretiens, synthèses & production d’études
- Production de livrables (articles, livres blancs, études etc.)
- Gestion de projets (projets clients et projets internes)
- Implication dans la commercialisation et l’évolution des offres du cabinet
- Participer à la réponse aux appels à projets et/ou missions
- une compréhension des besoins et enjeux particuliers des acteurs publics (collectivité, agences, administrations, Europe, etc.)
- Activité de veille sur les sujets d’expertise du cabinet
- Intervention lors de conférences françaises et internationales
- Compréhension des sujets technologiques et Data Literacy

Savoir-être
- pédagogue et didacticien.ne
- Dynamisme, curiosité et créativité
- Autonomie et esprit d’initiative
- Aptitude à travailler en équipe en interne et en externe
- Capacité à communiquer

Informations clés
- Date d’embauche : Dès à présent
- Contrat : un CDI en temps plein. Ce poste est aussi ouvert à un contrat d’alternance ou contrat d’apprentissage (avec perspective d’embauche).
- Expérience : De 2 à 5 ans
- Niveau d’études : Master ou équivalent
- Thèmes : #Numérique #OpenInnovation #OpenSource #OpenData #Ecosystèmes #CommunsNumériques
- Rémunération : selon profil, a priori évalué entre 35-50 k € annuel brut en fonction de l’expérience et des compétences.

- Lieu : Paris (10ᵉ arrondissement). Nous avons ouvert nos bureaux avec plusieurs entreprises et associations activement impliquées dans le milieu du numérique ouvert, ce qui constitue une opportunité intéressante d’évoluer dans un écosystème dynamique et innovant (un fonctionnement à distance/en télétravail est envisageable dans le cadre d'une organisation collective).
- Mode de fonctionnement : Les méthodes de travail au sein de l’entreprise sont à l’image des valeurs que nous promouvons, construites autour de l’ouverture, la transparence et la collaboration et privilégiant un mode de fonctionnement agile et souple.
- Notre charte définie nos principales valeurs et modalités d’organisation interne.",,"Communauté,Communs,Données ouvertes",,,https://inno3.fr/opportunites/consultante-strategie-communs-numeriques-accompagner-une-innovation-ouverte-durable,FR
Consultant.e conformité Open Source (entre legal et tech) -- Outiller et accompagner l'usage de l'Open Source au sein des projets numériques ,Prêt (pour import sur Wordpress),Publié ,conformite.png (https://dl.airtable.com/.attachments/2730f00f43f0fc5194fdbdf6fa80ee6d/7cef66df/conformite.png),https://inno3.fr/sites/default/files/articles/conformite.png,2022-01-06,06/01/2022  17:01 ,Benjamin,Outiller et accompagner l'usage de l'Open Source au sein des projets numériques,"Inno³ est un cabinet de conseil en stratégie ouverte spécialiste de l’Open Source créé en 2011. Nous nous impliquons auprès de grands groupes et d’administrations, d’instituts de recherche et fondations internationales, de jeunes pousses, de collectivités locales et de collectifs divers afin de les accompagner dans la bonne prise en compte de l’Open Source (et plus largement des modèles ouverts).
Notre approche vise aujourd’hui à proposer des services s’appuyant autant que nécessaire sur des méthodes et outils spécialisés, associant un accompagnement sur-mesure prenant en compte les spécificités du projet et du client afin d’assurer une complète appropriation des enjeux.
Dans son expertise la plus technique, inno³ est un spécialiste reconnu de l’audit de code et de l’évaluation de la conformité juridique des développements Open Source. Cette expertise résulte des expériences multiples en collaboration avec tous les éditeurs d’outils d’audit de code ainsi que sur une implication constante dans l’écosystème de l’audit de code Open Source (SPDX, OpenChain, Fondation Linux, etc.). Plus récemment, inno³ a mis à profit cette expertise en initiant le projet Hermine-FOSS, un outil Open Source de gestion des obligations de licences Open Source et de partage des interprétations de licences autour duquel se fédèrent les acteurs majeurs de l’audit de code Open Source, ainsi que plusieurs éditeurs de solutions libres intéressés par le développement d’un tel outil.
Afin d’accompagner cette activité ainsi que les opportunités qui en découle, nous recherchons une personne sensible à l’audit Open Source souhaitant rejoindre une équipe passionnée et multidisciplinaire pour y apporter ses compétences. La mission de l’Expert conformité Open Source pourra couvrir les divers champs d’intervention du cabinet et iront de la réalisation d’audits de projets au pilotage et mise en œuvre de politique Open Source dans la production et l’utilisation des logiciels Open Source au sein des organisations clientes.

Prérequis
- Connaissance des principes de développement logiciel et notamment de composition logicielle (c’est-à-dire les différentes modalités techniques d’intégration des dépendances au développement d’une application) dans différents langages (anciens et bas niveau du type C ou plus récents du type NodeJS)
- Capacité à évaluer les avantages et les risques liés à l’utilisation ou la production de logiciels Open Source en termes de coût, délais, différentiation, maîtrise, solidité technique, maturité, pérennité, popularité de techniques ou d’usages, image de France Télécom, etc.
- Compréhension et maîtrise de l’anglais indispensable

Compétences techniques
- Bonne connaissance générale des domaines informatique,
- bonne connaissance de l’écosystème open source et de ses enjeux
- Compétence approfondie de l’ingénierie logicielle, expérience significative dans le développement de logiciel dans un contexte industriel et/ou compétence en matière de qualité logiciel ;
- Capacité à appréhender les problèmes juridiques et de propriété industrielle (pour la bonne execution des recommandations sous-jacentes),
- (idéalement) Expérience opérationnelle dans le monde de l’Open Source (utilisation de composants, contribution voire pilotage d’une communauté Open Source), expérience de travail en réseau,
- Capacité d’analyse et de synthèse, capacité à la négociation, à convaincre, à communiquer

Compétences relationnelles
- pédagogue et didacticien.ne
- Rigueur et affinité avec le détail et la qualité
- Autonomie et esprit d’initiative
- Aptitude à travailler en équipe en interne et en externe
- Faire preuve de rigueur dans les missions et le travail en équipe
- Aptitude à se former et à former le reste de l’équipe

Missions
A ce titre, il.elle sera directement impliqué.e sur les sujets suivants :
- définition et mise en oeuvre de politiques open source et processus associés
- Conseil et accompagnement tout à long du cycle de vie open source (utilisation, contribution, publication, analyse de code, conformité des licences, suivant dans le temps des communautés)
- Ecriture du process d’analyse et audit du code source des solutions internes
- Conduite des analyses et audits (utilisation de composants, acquisitions de solutions externes)
- Formation aux enjeux et à la conformité open source
- participations à d’autres missions connexes telles que la création d’outils pour faciliter l’automatisation des process (notamment : Guide de licences, outils d’auto diag, trames de licences, etc.)

Informations clés
- Date d’embauche : premier trimestre 2022
- Contrat : un CDI en temps plein.
- Expérience : De 2 à 5 ans
- Niveau d’études : Master ou équivalent
- Thèmes : #Conformité #OpenSource #OpenData #Outillage #Qualité
- Rémunération : 35k€ à 50€ annuel brut selon profil.
Remarque : ce poste est aussi alternativement ouvert à un contrat d’alternance ou contrat d’apprentissage (avec perspective d’embauche).

- Lieu : Paris (10ᵉ arrondissement). Nous avons ouvert nos bureaux avec plusieurs entreprises et associations activement impliquées dans le milieu du numérique ouvert, ce qui constitue une opportunité intéressante d’évoluer dans un écosystème dynamique et innovant (un fonctionnement à distance est envisageable dans le cadre d'une organisation collective).
- Mode de fonctionnement : Les méthodes de travail au sein de l’entreprise sont à l’image des valeurs que nous promouvons, construites autour de l’ouverture, la transparence et la collaboration et privilégiant un mode de fonctionnement agile et souple.
- Notre charte définie nos principales valeurs et modalités d’organisation interne.",,"Politique de contribution,Logiciel (Open Source)",,,https://inno3.fr/opportunites/consultante-conformite-open-source-outiller-et-accompagner-lusage-de-lopen-source-au-sein,FR
"Stage - Transformation numérique des organisations et Communs numériques, Open Source et Open Data  ",Prêt (pour import sur Wordpress),Publié ,Stages.png (https://dl.airtable.com/.attachments/92b38ed825a68a48e78d65760bb1eaa3/0d8e262e/Stages.png),https://inno3.fr/sites/default/files/articles/Stages.png,2022-01-04,04/01/2022  15:56 ,Benjamin,,"Créé en 2011, Inno³ (prononcé « Inno Cube ») est un cabinet de conseil en innovation ouverte, indépendant et spécialiste de l'Open Data , de l'Open Source et des communs numériques.
Nous nous impliquons auprès d'organisations avant-gardistes dans ces domaines afin de construire à leurs côtés des formes novatrices de collaboration et d'ouverture en combinant un haut niveau d'expertise et des connaissances transverses. Pour ce faire, nous mettons à disposition de nos clients (grands groupes, d'instituts de recherche, de jeunes pousses, de collectivités locales et de collectifs divers) diverses compétences complémentaires que sont la gestion de la propriété intellectuelle, la transformation d'organisation, la structuration et l'interaction avec des communautés (entreprises et individus).
Cette offre de stage est destinée à un profil curieux, passionné par les opportunités offertes par le numérique et désireux de contribuer sa pierre à l'édifice. Il s'agit d'intégrer l'équipe de conseil pour un stage conventionné en entreprise de 6 mois.

Missions
Vous serez en contact direct avec toute l'équipe et vos missions principales concerneront notamment :
- intervention dans le cadre de projets clients aux côtés de nos consultants (entretiens, analyses, production de dossiers et notes de synthèse, etc.) ;
- la participation à l'organisation et l'animation d'événements ou d'ateliers dans le champ de l'Open Data, de l'Open Source et de l'Innovation ouverte ;
- veille dans les domaines d'activité du cabinet ;
- la rédaction d'articles, d'études en lien avec les activités de recherche du cabinet.

De manière transverse, vous contribuerez aux projets de développements de la société (en France et à l'étranger), à la réalisation de veille et de recherche sur les pratiques en matière de gestion de la propriété intellectuelle, vous pourrez intervenir en soutien aux activités de formation et aux missions scientifiques de la structure.
Le/la stagiaire pourra mettre en application ses enseignements et développer de nouvelles compétences en lien avec les nouveaux usages qui se développent dans le domaine de l'innovation et de la création.

Profil recherché
- Vous recherchez un stage conventionné de 6 mois à temps plein ;
- Vous êtes en MASTER spécialisé / MASTER II en Droit, en Science Politique ou autres disciplines de SHS, avec éventuellement une spécialisation relative au domaine des affaires, de la propriété intellectuelle ou encore de la concurrence ;
- Anglais courant ;
- Expérience(s) en cabinet d'avocats ou en entreprises (stages ou CDD) préconisée(s) ;
- Vous avez de bonnes qualités rédactionnelles, un esprit de synthèse et une rigueur dans votre travail ;
- Vous avez le sens de l'organisation et pouvez travailler de façon autonome ;
- Vous êtes intéressé(e) par les nouvelles technologies et non réfractaire à des analyses poussées menées sur des sujets mêlant droits et techniques.

Pourquoi travailler chez Inno³ ?
Lieu : Nous avons ouvert nos bureaux en plein cœur de Paris (10e arrondissement), disposant d'un grand espace que nous partageons avec plusieurs entreprises et associations activement impliquées dans le milieu du numérique ouvert. Vous évoluerez au sein d’une équipe jeune, enthousiaste et engagée dans ses missions quotidiennes.
Mode de fonctionnement : Les méthodes de travail au sein de l’entreprise sont à l’image des valeurs que nous promouvons : construites autour de l’ouverture, la transparence, la collaboration et privilégiant un mode de fonctionnement agile et souple.
Ce que nous aimons : De la bonne humeur, une bonne dose d’humour, de la curiosité et des chouquettes (au petit déj).
Vous êtes fait pour nous si : Vous souhaitez intégrer une entreprise en pleine croissance, vous former aux côtés d'une équipe impliquée dans l’écosystème numérique français et international, et vous n’avez pas peur de vous lancer dans une soirée ping-pong.
Covid-19 : Période de post-covid oblige, nous avons mis en place toutes les mesures permettant d'appliquer les gestes barrières tout en préservant le confort de travail. À ce titre, un fonctionnement alternant télétravail et présentiel pourra être mis en place d'un commun accord.

Informations clés
- Intitulé du poste: Stage - Transformation numérique des organisations et Communs numériques
- Département: Conseil
- Date : Dès décembre 2021
- Durée : 6 mois
- Référence Annonce: S-202112-17

Pour postuler merci d'envoyer un mail à hello@inno3.fr en précisant le nom du stage dans le sujet.
Merci et à très bientôt !",,"Droit,Propriété intellectuelle,Logiciel (Open Source)",,,https://inno3.fr/actualite/stage-transformation-numerique-des-organisations-et-communs-numeriques-open-source-et,FR
Stage – Accompagnement des activités de recherche-action d’inno³ dans une démarche de science ouverte ,Prêt (pour import sur Wordpress),Publié ,recherche-action et science ouverte.png (https://dl.airtable.com/.attachments/5de1c59d00f002f59f8196b508d28598/cd2a4647/recherche-actionetscienceouverte.png),https://inno3.fr/sites/default/files/articles/recherche-action%20et%20science%20ouverte.png,2021-11-24,24/11/2021  10:05 ,Célya,,"Inno³ (prononcé Inno Cube) est un cabinet de conseil en innovation ouverte, indépendant et spécialiste de l'open data, de l'open source et de l’open science. Nous nous impliquons auprès de grands groupes, d'instituts de recherche, d’universités, de jeunes pousses, de collectivités locales et de collectifs divers pour construire à leurs côtés des formes novatrices de collaboration et d'ouverture. Nous définissons ensemble des stratégies ambitieuses pour en tirer parti ; ainsi que des politiques pragmatiques qui permettent de les mettre en œuvre en s’appuyant sur des méthodologies de recherche-action.
Nos activités principales couvrent la gestion de la propriété intellectuelle, la transformation d'organisations, la structuration et l'interaction avec des communautés (organisations et individus) et la valorisation de projets autour de ressources et de gouvernance ouverte (communs, science ouverte).

Recherche et science ouverte au sein d’inno³
Dans le cadre de ses missions, inno³ accompagne différents acteurs de l’enseignement supérieur et de la recherche (ESR) dans la compréhension des transformations des pratiques de recherche avec le numérique et les nouvelles modalités de science ouverte. Nous associons à ces missions une démarche réflexive et de recherche-action afin de mieux comprendre le développement, la mise en œuvre et la pérennisation de modèles ouverts dans différents écosystèmes (production logiciels et open source, open data et collectivités locales, etc.). Inno³ s’appuie principalement sur des méthodes mixtes, des méthodes numériques (digital methods) et une exploration des outils et démarches de science ouverte dans ses différentes dimensions (ouverture des données, publications, accessibilité et médiation des savoirs).

Objet du stage
Le stage visera à accompagner l’organisation, la communication et la valorisation des activités de recherche d’inno³ dans une démarche de science ouverte.

Vos principales contributions porteront sur :
- La mise à disposition des publications sur différentes plateformes (Zenodo, HAL), la préparation, le nettoyage de données et la mise en ligne (par exemple sur data.gouv.fr ou sur la future plateforme recherche.data.gouv.fr), la mise à disposition et l’aide à l’attribution de licences des codes sources, la rédaction de synthèses des travaux, de billets de blogs, de supports de communication destinés à différents publics cibles (chercheur.e.s, société civile, etc.)
- L'aide à la réalisation de mission de recherche en français ET anglais (développement de questionnaire, transcript d'entretiens, etc.)
- La participation à l'organisation et l'animation d'ateliers/webinaires en présentiel et en ligne;
- L’aide à la structuration de la base de données de connaissances d’inno³ (méthodes de recherche documentaire) et de sa mise à disposition au sein de l’équipe et des partenaires;

Et de manière transverse :
- La veille sur les thématiques de science ouverte, de data science, de méthodes numériques, etc.
- La participation à la vie de l’entreprise et à l’amélioration des méthodes collaboratives au sein de la structure (wiki, documentation, etc.)

Dans ce contexte, nous serions intéressé.e.s par l’accueil d’ un.e stagiaire conventionné.e pour une durée de 6 mois dès que possible. Vous serez en contact direct avec toute l'équipe, mais serez plus particulièrement accompagné.e par Celya Gruson-Daniel (responsable de stage) et Maya Anderson-González (pôle recherche au sein d’inno³)

Profil recherché :
- Vous recherchez un stage conventionné de 6 mois à temps plein;
- Vous êtes en MASTER spécialisé / MASTER II en communication, humanités numériques, ingénierie documentaire ou vous provenez d’autres cursus disciplinaire (design, droit, éducation, sociologie, communication, sciences politiques) et êtes intéressé·e par le champ de la science ouverte;
- Vous avez de bonnes qualités rédactionnelles, un goût pour la communication et la transmission des savoirs à différents publics (professionnels de la recherche, monde associatif, politique, etc.)
- Vous êtes intéressé.e par le champ du numérique et les enjeux d’ouverture du numérique (open source, open data, open science, etc.) et la production de code libre ;
- Vous avez connaissance d’outils de gestion bibliographique et de recherche documentaire (veille, structuration d’une base de données de connaissances, constitution de thesaurus, etc.) 
- Vous êtes prêt.e.s à découvrir et à vous adapter à des environnements open source et des outils collaboratifs (Gitlab, Codimd, Jupyter Notebook, etc.) et une méthode de travail agile.
- Une connaissance ou appétence pour la programmation et l’analyse de données (sous R ou Python) serait un plus
- Vous avez une bonne maîtrise de l’anglais

Pourquoi rejoindre Inno³ ?
Des projets client stratégiques dans des contextes aussi bien publics que privés.
Une collaboration au quotidien avec les communautés qui constituent l’essence des mouvements des Logiciels Libres / open data / open science
Des méthodes de travail à l’image des valeurs que nous promouvons : construites autour de l’ouverture, de la transparence, de la collaboration et privilégiant un mode de fonctionnement agile et flexible.
Un cadre de travail agréable, stimulant et souple : nos bureaux sont facilement accessibles en transport en communs, à côté de la Gare du Nord (Paris, Xe arrondissement), partagés avec plusieurs entreprises et associations activement impliquées dans le milieu du numérique ouvert (design, droit, développement de logiciels libres, etc.) au sein d’un lieu ouvert (« le 137 », https://inno3.fr/le-137), qui accueille régulièrement des acteurs de nos différents écosystèmes pour leurs événements récurrents ou ponctuels.
Des jours en télétravail peuvent être adaptés sans toute fois souhaiter une solution 100 % en télétravail.

Informations clés
- Intitulé du poste: Accompagnement des activités de recherche-action d’inno³ dans une démarche de science ouverte
- Date : dès janvier 2022
- Durée : 6 mois
- Département: Recherche et développement

Pour postuler, contactez-nous par mail : hello@inno3.fr",,,,,https://inno3.fr/actualite/stage-accompagnement-des-activites-de-recherche-action-dinno3-dans-une-demarche-de,FR
Internship -- API Terms of Service : Towards a Creative Commons Model ,Prêt (pour import sur Wordpress),Publié ,Stage API TOS.png (https://dl.airtable.com/.attachments/2b9d99d0f116bd6d250b2da6534bcecf/e5aa4cf3/StageAPITOS.png),https://inno3.fr/sites/default/files/articles/Stage%20API%20TOS.png,2021-11-19,19/11/2021  17:14 ,Benjamin,"How can a Creative Commons model for API Terms of Service participate in creating an open, safe and sustainable ecosystem for digital infrastructures? ","Title : Internship -- API Terms of Service : Towards a Creative Commons Model
Duration : as soon as possible (December 2021) for 6 months (full time)
Département : Research

In order to scale technical, business and legal interoperability between digital infrastructures, the APIToS-CC project aims to build a “Creative Commons” framework for API Terms of Service, as a contract to automatically read, control and enforce APIs Terms of Service between digital infrastructures and applications. API Terms of Service represent a boundary object whose identification of specific clauses and degree of ""openness"" (on the model of Creative Commons licenses with different degrees of conditions of use) can work towards a better understanding and vigilance regarding the constitution of open, secure, safe and sustainable digital infrastructure ecosystems.
The project started in February 2021 and is funded by a Ford Digital Infrastructure Research Grant. We are now in the second phase of the project (survey and quantitative analysis) before the production of the results (legal framework for APIToS) and their communication.
 
Missions
As our project intern you will be responsible for :
- conducting a survey, following up on preliminary qualitative interviews, and participating in the survey data analysis 
- contributing the development of a framework of API Terms of Service providers
- helping on the legal design of the legal framework in order to understand API terms of service claims more easily
- supporting the expert team by writing verbatim and workshop deliverables
- attending collective meetings with other Ford Digital Infrastructure Research Grantees
- communicating on the project and its results to different stakeholders
 
Your Profile
- Master (1st or 2nd year) in social sciences (Political Science, Science and Technology Studies, Digital Technologies and Design, Legal Studies)
- Fluent in English
- Interest for Digital Technologies and their socio-political stakes
- Curiosity in Open Source and Open Data
 
You will be co-supervised by two organizations (Les Mainteneurs.org and Inno³). You will work remotely and (if possible) in the co-working space ""le 137"" (137 Boulevard de Magenta - 75010 Paris - France). You can find more information about the APIToS-CC project here.

Are you interested in this internship? Please contact us at hello@inno3.fr",,"API,Communs,Publication,Science ouverte",,The Maintainers,https://inno3.fr/actualite/internship-api-terms-service-towards-creative-commons-model,EN
Ouverture d'un poste de designeuse/eur (temps complet ou partiel) - Rendre accessible la complexité ,Prêt (pour import sur Wordpress),Publié ,postedesign2.png (https://dl.airtable.com/.attachments/77b01dc053ea1705f002f1157b20ad19/ce0d8ef5/postedesign2.png),https://inno3.fr/sites/default/files/articles/postedesign2.png,2021-06-20,20/06/2021  18:07 ,Benjamin,,"Date d’embauche : Dès à présent
Contrat : un CDD de 6 mois, avec possibilité de CDI. Ce poste est aussi ouvert à un contrat d’alternance ou contrat d’apprentissage (avec perspective d’embauche).
Thèmes : #Numérique #OpenInnovation #OpenSource #OpenData #Ecosystèmes #CommunsNumériques #OpenScience

Vous êtes convaincu.e que le numérique est une véritable opportunité pour une innovation collaborative durable, efficiente et responsable ? Vous êtes entraîné.e à traduire des sujets complexes en livrables lisibles, compréhensibles et activables pour en favoriser l’appropriation et la dissémination auprès de publics variés ?
Nous recherchons un.e designeur.se souhaitant rejoindre une équipe passionnée et mutlidisciplinaire pour y apporter son regard et ses compétences de design. Complètementaire et transversale vis-à-vis de l’équipe, cette personne sera associée à la réalisation de missions et projets du cabinet en même temps qu’elle accompagnera une meilleure prise en compte des démarches de design au sein de l’équipe.
Inno³ est un cabinet de conseil en innovation et science ouverte, indépendant et spécialiste de l’Open Data et de l’Open Source créé en 2011. Actuellement acteur de référence dans son domaine, le cabinet s’appuie sur l’expertise tirée de l’implication de ses fondateurs au sein de nombreux projets ouverts, autant communautaires qu’industriels, depuis les années 2000 et de nombreuses missions menées en France et à l’international.
Aujourd’hui, nous nous impliquons auprès de grands groupes et d’administrations, d’instituts de recherche et fondations internationales, de jeunes pousses, de collectivités locales et de collectifs divers pour construire à leurs côtés des formes novatrices de collaboration et d’ouverture. Nous définissons ensemble des stratégies ambitieuses pour en tirer parti ainsi que des politiques pragmatiques qui permettent de les mettre en œuvre. Cette activité couvre, en collaboration avec de nombreux autres expert.e.s en France et à l’international, les enjeux de gestion de la propriété intellectuelle, de transformation d’organisation, de structuration et interaction avec des communautés (entreprises et individus). Nos compétences de niche sont mises à profit dans des démarches d’innovation et de recherche (Open Innovation et Open Science) et appliquées autant en matière d’Open Source, que d’Open Data, d’Open Hardware ou encore de communs numériques.

Prérequis
- Expérience dans le domaine du design d’organisations, de services et de produits. Une expérience de design appliquées au champ juridique (langage juridique clair, infographie juridique/Visual law, etc.) est un plus
- Bonne appréhension des enjeux du numérique et de la propriété intellectuelle>> [mettre la DPI en exemple de la phrase suivante]. Une connaissance du secteur dans lequel intervient le cabinet est un atout.
- Maîtrise de l’anglais

Savoir-faire
- Participer à la réponse aux appels à projets et/ou missions
- Concevoir (ou participer) à la définition de méthodologies (design thinking, etc.) dans le cadre de mission du cabinet ou de travaux de recherche
- Participer à la production de livrables nécessaires à la conduite de la mission
- Auditer et contribuer à perfectionner les méthodes et ressources internes et externes dans une approche design
- Être en capacité d’accompagner une montée en compétences partagées en matière de design
- Produire des livrables divers susceptibles de favoriser en interne ou en externe une meilleure appropriation et dissémination des travaux menés au sein du cabinet
- Compréhension des sujets technologiques (enjeux numériques, culture de la donnée, etc.)

Savoir-être
- pédagogue et didacticien.ne
- Dynamisme, curiosité et créativité
- Autonomie et esprit d’initiative
- Aptitude à travailler en équipe en interne et en externe
- Faire preuve de rigueur dans les missions et le travail en équipe
- Aptitude à se former et à former le reste de l’équipe
- Capacité à communiquer

Conditions
- Lieu : Paris (10ᵉ arrondissement). Nous avons ouvert nos bureaux avec plusieurs entreprises et associations activement impliquées dans le milieu du numérique ouvert, ce qui constitue une opportunité intéressante d’évoluer dans un écosystème dynamique et innovant.
- Rémunération : 2200 # brut/mois. Négociable selon profil et expérience.
- Mode de fonctionnement : Les méthodes de travail au sein de l’entreprise sont à l’image des valeurs que nous promouvons, construites autour de l’ouverture, la transparence et la collaboration et privilégiant un mode de fonctionnement agile et souple.

(Credit : Sharp Centre for Design - fragment of the facade, Toronto, Canada (CC By-SA 4.0))",,"Design,Innovation Ouverte,Communs,Communauté",,,https://inno3.fr/actualite/designeuse.eur-tps-complet-ou-partiel-rendre-accessible-la-complexite,FR
Stage – Projet Open Source technologie Django ,Prêt (pour import sur Wordpress),Publié ,Stage dév.png (https://dl.airtable.com/.attachments/ea3d240d7d638de73c35f1f905880f81/2367a63c/Stagedv.png),https://inno3.fr/sites/default/files/articles/Stage%20dév.png,2021-05-31,31/05/2021  10:52 ,Benjamin,,"Intitulé du poste : Stage – Projet Open Source technologie Django
Date : dès que possible (Juin 2021)
Départements : Recherche & Développement

Inno³ (Inno « Cube ») est un cabinet de conseil en innovation ouverte, indépendant et spécialiste de l'open data et de l'open source. Nous nous impliquons auprès de grands groupes, d'instituts de recherche, de jeunes pousses, de collectivités locales et de collectifs divers pour construire à leurs côtés des formes novatrices de collaboration et d'ouverture. Nous définissons ensemble des stratégies ambitieuses pour en tirer parti ; ainsi que des politiques pragmatiques qui permettent de les mettre en œuvre. Nos activités principales couvrent la gestion de la propriété intellectuelle, la transformation d'organisations, la structuration et l'interaction avec des communautés (entreprises et individus) et la valorisation de projets autour de ressources et de gouvernance ouverte (communs).
Dans le cadre de ses activités de gestion de la conformité en termes de licences open source, Inno³ a entamé depuis fin 2019 le développement d’une application permettant de soutenir et automatiser ses missions. Mi 2020, un premier prototype a été produit permettant d’organiser l’interprétation des textes de licences et d’articuler leurs obligations avec les inventaires issus d’outils Open Source (comme OSS Review Toolkit ou Yocto).
Afin de soutenir la démarche de développement de ce POC (proof of concept) et sa transformation en une application diffusable publiquement sous licence open source, nous souhaitons accueillir un ou une stagiaire (conventionné) pour une durée de 6 mois. Ce stage sera aussi l’occasion pour l’étudiant.e de participer aux aspects techniques des activités de recherche menées au sein du cabinet.

Vos principales contributions porteront sur :
Le développement / la refactorisation d’une application Python/Django pour la publier sous licence open source ; ce qui comprend notamment :
- La revue des modèles de données vis-à-vis des objectifs métiers et des API tierces utilisées ;
- La participation au design de l’interface (conception en fonction des usages du logiciel dans les communautés open source) ;
- L’évolution du socle technique en fonction des éventuelles limitations constatées.

Et de manière transverse :
- La participation à la mise en place en cours d’une méthodologie data science / open science ( reproductibilité des analyses, principes FAIR, … ) pour les missions d’Inno³ ;
- La veille sur les pratiques en matière de data science et machine learning, open science, UX Design ;
- La participation aux projets scientifiques de la structure ;
- La participation à la vie de l’entreprise et de l’amélioration des méthodes ouvertes et agiles au sein de la structure.

Cette liste est non exhaustive et pourra être construite avec le / la stagiaire

Encadrement du stage
Vous serez en contact direct avec toute l'équipe, mais serez plus particulièrement accompagné(e) par Camille Moulin (consultant senior, spécialisé sur les questions de conformité) et Célya Gruson-Daniel (spécialiste des questions d’open science et de data science).
 
Profil recherché
Du point de vue administratif :
- Nécessaire : Stage conventionné de 6 mois à temps plein ;
- Ce que l’on imagine : étudiant(e) en MASTER spécialisé / MASTER II et /ou en école ingénieur (3ème année) en informatique, sciences des données avec si possible une ouverture aux sciences sociales et design.

Du point de vue technique :
- Nécessaire : une bonne connaissance du framework Django (ce qui implique à priori une relative aisance en Python, une maîtrise des concepts de base en SQL et HTML/CSS)
- Utile : une pratique des outils standards (git, notebooks Jupyter, ...), des notions d’accessibilité numérique, une connaissance des workflow data science et open source

Du point de vue personnel
- Nécessaire : un intérêt pour les enjeux d’ouverture du numérique (open source, open data, open science, etc.) et la production de code libre.
- Utile : un intérêt pour le design et UX design et à ses différents embranchements ; le sens de l'organisation pour pouvoir travailler de façon autonome.
- Bonus : un intérêt pour l’innovation juridique en tant que force de levier organisationnel, économique pour les modèles ouverts
 
Pourquoi rejoindre Inno³ ?
Des projets client stratégiques dans des contextes aussi bien publics que privés
Une collaboration au quotidien avec les communautés qui constituent l’essence des mouvements des Logiciels Libres / open data / open science
Des méthodes de travail à l’image des valeurs que nous promouvons : construites autour de l’ouverture, de la transparence, de la collaboration et privilégiant un mode de fonctionnement agile et souple.   
Un cadre de travail agréable, stimulant et souple : nos bureaux sont facilement accessibles, à côté de la Gare du Nord (Paris, 10e arrondissement). Partagés avec plusieurs entreprises et associations activement impliquées dans le milieu du numérique ouvert (design, droit, développement de logiciels libres, etc.) notre bureau est un lieu ouvert (appelé « le 137 »), qui accueille régulièrement des acteurs de nos différents écosystèmes pour leurs événements récurrents ou ponctuels.
Au vu des conditions sanitaires actuelles, le stage sera adapté en télétravail avec des rencontres régulières (si possible dans nos locaux). Une solution 100 % en télétravail n’est pas souhaitée mais pourra être envisagée en fonction des besoins et des annonces du gouvernement.
 
Contactez-nous par mail pour postuler : hello@inno3.fr",,"Droit,Logiciel (Open Source)",,,https://inno3.fr/actualite/stage-projet-open-source-technologie-django,FR
Stage - Chargé(e) de communication et événementiel  ,Prêt (pour import sur Wordpress),Publié ,Stage INNO3.png (https://dl.airtable.com/.attachments/204d6f411ee15dc7c02a5fd8f819d707/f6ee2139/StageINNO3.png),https://inno3.fr/sites/default/files/articles/Stage%20INNO3.png,2017-07-12,12/07/2017  15:42 ,Caroline,,"Missions
En lien direct avec la Direction, l’étudiant(e) contribuera à l’élaboration et à la mise en œuvre effective du plan de communication de l’entreprise. Il (elle) pilotera les différents cycles d’événements professionnels organisés régulièrement par la structure, Plus ponctuellement, l’étudiant(e) sera en charge des relations avec la presse, spécialisée et généraliste.

Communication
- Diffusion de l’actualité et valorisation de l’expertise de l’entreprise
- Gestion des outils de communication web : réseaux sociaux, site internet, blog, newsletter
- Création de supports de communication
- Rédaction d’articles en lien avec l’actualité de l’entreprise

Événementiel
- Pilotage des cycles d’événements organisés par l’entreprise, autour de sujets d’expertise pointue
- Préparation de la participation de l’entreprise à des salons professionnels (supports de communication, présence le jour de l’événement, contact avec les journalistes, etc.)

Relations presse
- Gestion et développement des relations avec les journalistes
- Réalisation de dossiers de presse (en préparation de salons ou conférences)
- Actualisation de la revue de presse de l’entreprise, gestion des interviews

Compétences
- Bac +3 minimum, avec une spécialisation en communication et événementiel
- Bases en graphisme, capacité à produire des visuels simples
- Connaissance des technologies web (Drupal est un plus) et des réseaux sociaux
- Expérience en événementiel, ou a minima un attrait pour l’organisation d’événements
- Bonne appréhension des enjeux du numérique. Une connaissance du monde et de la philosophie de l’Open Source et du Libre sont un atout majeur.
- Aisance rédactionnelle, maîtrise de l’orthographe
- Dynamisme, esprit d’initiative, autonomie, capacité à travailler en équipe

Conditions du stage
Durée
- Stage long (5 à 6 mois)
- Disponibilité : dès à présent

Lieu
- L’étudiant(e) sera accueilli(e) au sein des locaux de l’entreprise, à Paris (10ème arrondissement), et travaillera en lien direct avec la Direction et l’ensemble de l’équipe.
- Nous partageons nos bureaux avec plusieurs entreprises et associations activement impliquées dans le milieu du numérique ouvert, ce qui constitue une opportunité intéressante pour l’étudiant(e) de s’ouvrir à de multiples horizons et d’évoluer dans un écosystème dynamique et innovant.

Opportunités
- Il est tout à fait envisageable de transformer le contrat en CDI ou en CDD à l’issue du stage, si la collaboration fonctionne bien.

Mode de fonctionnement
- Les méthodes de travail au sein de l’entreprise sont à l’image des valeurs que nous promouvons, construites autour de l’ouverture, la transparence et la collaboration et privilégiant un mode de fonctionnement agile et souple.
- Nous sommes donc ouverts pour construire avec l’étudiant(e) le meilleur format de collaboration permettant de s’adapter tant à son profil et parcours, qu’aux besoins de l’entreprise.
 
A propos d'inno3 
Inno3 est un cabinet de conseil en innovation ouverte, indépendant et spécialiste de l'Open Data et de l'Open Source. Nous nous impliquons auprès de grands groupes, d'instituts de recherche, de jeunes pousses, de collectivités locales et de collectifs divers pour construire à leurs côtés des formes novatrices de collaboration et d'ouverture. Nous définissons ensemble des stratégies ambitieuses pour en tirer parti ainsi que des politiques pragmatiques qui permettent de les mettre en œuvre.",,Innovation Ouverte,,,https://inno3.fr/actualite/stage-chargee-de-communication-et-evenementiel,FR